Exploring extract_data(): from ready-to-use output to raw data • vaultkeepr
…
get_traits() was called

data_abiotic
Abiotic table: samples linked to gridpoint variables

get_abiotic_data() was called

Working with the nested columns

Use tidyr::unnest() to expand a nested column back into a flat tibble, or use purrr::map() to operate on each dataset’s data independently.

# Expand sample metadata for every dataset
data_nested |>
  tidyr::unnest(cols = data_samples)
#> # A tibble: 54 × 13
#>    dataset_name data_source_desc     dataset_type dataset_source_type coord_long
#>    <chr>        <chr>                <chr>        <chr>                    <dbl>
#>  1 dataset_1    EVA (European Veget… vegetation_… BIEN                      -115
#>  2 dataset_1    EVA (European Veget… vegetation_… BIEN                      -115
#>  3 dataset_2    EVA (European Veget… vegetation_… BIEN                      -115
#>  4 dataset_2    EVA (European Veget… vegetation_… BIEN                      -115
#>  5 dataset_3    EVA (European Veget… vegetation_… BIEN                      -115
#>  6 dataset_3    EVA (European Veget… vegetation_… BIEN                      -115
#>  7 dataset_4    EVA (European Veget… vegetation_… sPlotOpen                 -115
#>  8 dataset_4    EVA (European Veget… vegetation_… sPlotOpen                 -115
#>  9 dataset_5    EVA (European Veget… vegetation_… sPlotOpen                 -115
#> 10 dataset_5    EVA (European Veget… vegetation_… sPlotOpen                 -115
#> # ℹ 44 more rows
#> # ℹ 8 more variables: coord_lat <dbl>, sampling_method_details <chr>,
#> #   sample_name <chr>, age <dbl>, sample_details <chr>, sample_size <dbl>,
#> #   description <chr>, data_community <list>

# Expand the community matrix for every dataset
data_nested |>
  tidyr::unnest(cols = data_community)
#> # A tibble: 54 × 54
#>    dataset_name data_source_desc     dataset_type dataset_source_type coord_long
#>    <chr>        <chr>                <chr>        <chr>                    <dbl>
#>  1 dataset_1    EVA (European Veget… vegetation_… BIEN                      -115
#>  2 dataset_1    EVA (European Veget… vegetation_… BIEN                      -115
#>  3 dataset_2    EVA (European Veget… vegetation_… BIEN                      -115
#>  4 dataset_2    EVA (European Veget… vegetation_… BIEN                      -115
#>  5 dataset_3    EVA (European Veget… vegetation_… BIEN                      -115
#>  6 dataset_3    EVA (European Veget… vegetation_… BIEN                      -115
#>  7 dataset_4    EVA (European Veget… vegetation_… sPlotOpen                 -115
#>  8 dataset_4    EVA (European Veget… vegetation_… sPlotOpen                 -115
#>  9 dataset_5    EVA (European Veget… vegetation_… sPlotOpen                 -115
#> 10 dataset_5    EVA (European Veget… vegetation_… sPlotOpen                 -115
#> # ℹ 44 more rows
#> # ℹ 49 more variables: coord_lat <dbl>, sampling_method_details <chr>,
#> #   data_samples <list>, sample_name <chr>, `Alnus cordata` <dbl>,
#> #   `Alnus glutinosa` <dbl>, `Alnus incana` <dbl>, `Alnus rhombifolia` <dbl>,
#> #   `Alnus viridis` <dbl>, `Artemisia absinthium` <dbl>,
#> #   `Artemisia annua` <dbl>, `Artemisia campestris` <dbl>,
#> #   `Artemisia maritima` <dbl>, `Artemisia vulgaris` <dbl>, …

# Compute per-dataset taxon richness using purrr::map()
data_nested |>
  dplyr::mutate(
    n_taxa = purrr::map_int(
      .x = data_community,
      .f = ~ {
        # Number of taxon columns = all columns except sample_name
        ncol(.x) - 1L
      }
    )
  ) |>
  dplyr::select(dataset_name, dataset_type, n_taxa)
#> # A tibble: 27 × 3
#>    dataset_name dataset_type    n_taxa
#>    <chr>        <chr>            <int>
#>  1 dataset_1    vegetation_plot     45
#>  2 dataset_2    vegetation_plot     45
#>  3 dataset_3    vegetation_plot     45
#>  4 dataset_4    vegetation_plot     45
#>  5 dataset_5    vegetation_plot     45
#>  6 dataset_6    vegetation_plot     45
#>  7 dataset_7    vegetation_plot     45
#>  8 dataset_8    vegetation_plot     45
#>  9 dataset_9    vegetation_plot     45
#> 10 dataset_28   vegetation_plot     45
#> # ℹ 17 more rows
…
When to use the raw output

Large queries where the packing step is a bottleneck.

Workflows that need to join directly on database IDs with external tables before any reshaping.

Debugging or exploring the raw query result to understand what the database returned.

Users who are already familiar with the VegVault schema and prefer to do their own tidying with dplyr and tidyr.

# Count the number of samples per dataset
data_flat |>
  dplyr::distinct(dataset_id, sample_id) |>
  dplyr::count(dataset_id, name = "n_samples")
#> # A tibble: 27 × 2
#>    dataset_id n_samples
#>         <int>     <int>
#>  1          1         2
#>  2          2         2
#>  3          3         2
#>  4          4         2
#>  5          5         2
#>  6          6         2
#>  7          7         2
#>  8          8         2
#>  9          9         2
#> 10         28         2
#> # ℹ 17 more rows
…
