Retrieving data citations with get_references() • vaultkeepr
…
To include trait references, add get_traits() to the plan before calling get_references() — see the functional traits article for an example.

Returning citations without source information

Setting get_source = FALSE suppresses the reference_source column and de-duplicates across levels, producing a minimal list of distinct (reference, mandatory) pairs. This compact format is ready to use directly as an input to a reference manager or bibliography.

data_cite_list <-
  get_references(
    con = plan,
    get_source = FALSE,
    verbose = FALSE
  )

data_cite_list
#> # A tibble: 25 × 2
#>    reference          mandatory
#>    <chr>              <lgl>    
#>  1 dataset_2          FALSE    
#>  2 dataset_1          FALSE    
#>  3 dataset_5          FALSE    
#>  4 dataset_4          FALSE    
#>  5 dataset_3          FALSE    
#>  6 data_source_2      FALSE    
#>  7 data_source_type_2 TRUE     
#>  8 data_source_type_3 TRUE     
#>  9 sampling_method_2  FALSE    
#> 10 sample_5           FALSE    
#> # ℹ 15 more rows
…
