Inspecting and customising the taxonomic classification • vaultkeepr
…
genus_name
Genus name

taxon_family
Family taxon ID

family_name
Family name

The ID columns (taxon_id, taxon_species, taxon_genus, taxon_family) make the tibble directly usable as classification_data in subsequent calls, while the name columns let you inspect it with human-readable labels.

data_class
#> # A tibble: 45 × 8
#>    taxon_id taxon_name         taxon_species species_name taxon_genus genus_name
#>       <int> <chr>                      <int> <chr>              <int> <chr>     
#>  1        1 Poa annua                      1 Poa annua             46 Poa       
#>  2        2 Poa pratensis                  2 Poa pratens…          46 Poa       
#>  3        3 Poa trivialis                  3 Poa trivial…          46 Poa       
#>  4        4 Poa alpina                     4 Poa alpina            46 Poa       
#>  5        5 Poa nemoralis                  5 Poa nemoral…          46 Poa       
#>  6        6 Festuca rubra                  6 Festuca rub…          47 Festuca   
#>  7        7 Festuca ovina                  7 Festuca ovi…          47 Festuca   
#>  8        8 Festuca pratensis              8 Festuca pra…          47 Festuca   
#>  9        9 Festuca arundinac…             9 Festuca aru…          47 Festuca   
#> 10       10 Festuca valesiaca             10 Festuca val…          47 Festuca   
#> # ℹ 35 more rows
#> # ℹ 2 more variables: taxon_family <int>, family_name <chr>
…
To re-map every species of a genus rather than a single taxon, use genus_name == "Betula" as the dplyr::case_when() condition instead of taxon_name == "Betula nana". The same approach works for family- level remapping via taxon_family.

Using the raw-ID table

If you only need the ID columns (e.g. to edit IDs programmatically or to pass to a function that expects only the TaxonClassification schema), set return_raw_data = TRUE:

data_class_raw <-
  get_classification_table(
    con = plan_taxa,
    return_raw_data = TRUE
  )

data_class_raw
#> # A tibble: 45 × 4
#>    taxon_id taxon_species taxon_genus taxon_family
#>       <int>         <int>       <int>        <int>
#>  1        1             1          46           55
#>  2        2             2          46           55
#>  3        3             3          46           55
#>  4        4             4          46           55
#>  5        5             5          46           55
#>  6        6             6          47           55
#>  7        7             7          47           55
#>  8        8             8          47           55
#>  9        9             9          47           55
#> 10       10            10          47           55
#> # ℹ 35 more rows
…
